NCAA Tournament 2018 Model Presentation
…
Save these predictions back into the origional dataset

tourny$Pred = probvec

tourny

## # A tibble: 2,278 x 2
##    id               Pred
##    <chr>           <dbl>
##  1 2018_1104_1112 0.154 
##  2 2018_1104_1113 0.314 
##  3 2018_1104_1116 0.368 
##  4 2018_1104_1120 0.0485
##  5 2018_1104_1137 0.477 
##  6 2018_1104_1138 0.297 
##  7 2018_1104_1139 0.49  
##  8 2018_1104_1153 0.334 
##  9 2018_1104_1155 0.398 
## 10 2018_1104_1158 0.546 
## # ... with 2,268 more rows
…
